Chapter 21 Analysis of Variance | Data Science for Biological, Medical and Health Research: Notes for PQHS/CRSP/MPHP 431
…
Parsed with column specification:
cols(
  .default = col_double(),
  sex = col_character(),
  race.eth = col_character(),
  income.cat3 = col_character(),
  income.detail = col_character(),
  bmi.cat = col_character()
)

See spec(...) for full column specifications.

nyfs2

# A tibble: 280 x 21
   subject.id sex   age.exam race.eth english income.cat3 income.detail
        <dbl> <chr>    <dbl> <chr>      <dbl> <chr>       <chr>        
 1      73228 Male         4 5 Other~       1 Low (below~ 0 to 4999    
 2      72393 Male         4 2 Non-H~       1 Low (below~ 0 to 4999    
 3      73303 Male         3 2 Non-H~       1 Low (below~ 0 to 4999    
 4      72786 Male         5 1 Non-H~       1 Low (below~ 0 to 4999    
 5      73048 Male         3 2 Non-H~       1 Low (below~ 0 to 4999    
 6      72556 Fema~        4 2 Non-H~       1 Low (below~ 0 to 4999    
 7      72580 Fema~        5 2 Non-H~       1 Low (below~ 0 to 4999    
 8      72532 Fema~        4 4 Other~       0 Low (below~ 0 to 4999    
 9      73012 Male         4 1 Non-H~       1 Low (below~ 0 to 4999    
10      72099 Male         6 1 Non-H~       1 Low (below~ 0 to 4999    
# ... with 270 more rows, and 14 more variables: inc.to.pov <dbl>,
#   weight.kg <dbl>, height.cm <dbl>, bmi <dbl>, bmi.group <dbl>,
#   bmi.cat <chr>, arm.length <dbl>, arm.circ <dbl>, waist.circ <dbl>,
#   calf.circ <dbl>, calf.skinfold <dbl>, triceps.skinfold <dbl>,
#   subscap.skinfold <dbl>, GMQ <dbl>
…
