Chapter 1 Comparing Means/Quantities using Paired Samples | Data Science for Biological, Medical and Health Research: Notes for PQHS/CRSP/MPHP 431
…
The data are available in several places, including Table 5 of Pruzek and Helmreich (2009), in the BloodLead data set within the PairedData package in R, but we also make them available in the bloodlead.csv file. A table of the first few pairs of observations (blood lead levels for one child exposed to lead and the matched control) is shown below.

bloodlead <- read_csv("data/bloodlead.csv")

Parsed with column specification:
cols(
  pair = col_character(),
  exposed = col_double(),
  control = col_double()
)

bloodlead

# A tibble: 33 x 3
   pair  exposed control
   <chr>   <dbl>   <dbl>
 1 P01        38      16
 2 P02        23      18
 3 P03        41      18
 4 P04        18      24
 5 P05        37      19
 6 P06        36      11
 7 P07        23      10
 8 P08        62      15
 9 P09        31      16
10 P10        34      18
# ... with 23 more rows
…
We’ll begin by adjusting the data in two ways.

We’d like that first variable (pair) to be a factor rather than a character type in R, because we want to be able to summarize it more effectively. So we’ll make that change.

Also, we’d like to calculate the difference in lead content between the exposed and the control children in each pair, and we’ll save that within-pair difference in a variable called lead_diff. We’ll take lead_diff = exposed - control so that positive values indicate increased lead in the exposed child.

bloodlead_original <- bloodlead

bloodlead <- bloodlead_original %>%
    mutate(pair = factor(pair),
           lead_diff = exposed - control)

bloodlead

# A tibble: 33 x 4
   pair  exposed control lead_diff
   <fct>   <dbl>   <dbl>     <dbl>
 1 P01        38      16        22
 2 P02        23      18         5
 3 P03        41      18        23
 4 P04        18      24        -6
 5 P05        37      19        18
 6 P06        36      11        25
 7 P07        23      10        13
 8 P08        62      15        47
 9 P09        31      16        15
10 P10        34      18        16
# ... with 23 more rows
…
And what we want to accomplish is to have one row for each subject, instead of one row for each pair of subjects. So we want to make the data longer.

bloodlead_longer <- bloodlead_original %>%
    pivot_longer(
        cols = -c(pair),
        names_to = "status",
        values_to = "lead_level")

bloodlead_longer

# A tibble: 66 x 3
   pair  status  lead_level
   <chr> <chr>        <dbl>
 1 P01   exposed         38
 2 P01   control         16
 3 P02   exposed         23
 4 P02   control         18
 5 P03   exposed         41
 6 P03   control         18
 7 P04   exposed         18
 8 P04   control         24
 9 P05   exposed         37
10 P05   control         19
# ... with 56 more rows
…
Our point estimate for the difference (exposed - control) in lead levels is 15.97 mg/dl, and our 90% confidence interval is (11.29, 20.65) mg/dl.

1.5.1 Paired Data in Longer Format?

If we had the data in “longer” format, as in bloodlead_longer, with the pairs identified by the pair variable, then we could obtained the same confidence interval using:

model2_lead <- lm(lead_level ~ status + factor(pair), data = bloodlead_longer)

tidy(model2_lead, conf.int = TRUE, conf.level = 0.90) 

# A tibble: 34 x 7
   term            estimate std.error statistic    p.value conf.low conf.high
   <chr>              <dbl>     <dbl>     <dbl>      <dbl>    <dbl>     <dbl>
 1 (Intercept)        19.0       8.05    2.36   0.0244         5.38     32.7 
 2 statusexposed      16.0       2.76    5.78   0.00000204    11.3      20.6 
 3 factor(pair)P02    -6.50     11.2    -0.579  0.566        -25.5      12.5 
 4 factor(pair)P03     2.5      11.2     0.223  0.825        -16.5      21.5 
 5 factor(pair)P04    -6.00     11.2    -0.535  0.596        -25.0      13.0 
 6 factor(pair)P05     1.       11.2     0.0891 0.930        -18.0      20.0 
 7 factor(pair)P06    -3.50     11.2    -0.312  0.757        -22.5      15.5 
 8 factor(pair)P07   -10.5      11.2    -0.936  0.356        -29.5       8.50
 9 factor(pair)P08    11.5      11.2     1.03   0.313         -7.50     30.5 
10 factor(pair)P09    -3.50     11.2    -0.312  0.757        -22.5      15.5 
# ... with 24 more rows
…
