Chapter 3 NHANES: Initial Exploring | Data Science for Biological, Medical and Health Research: Notes for PQHS/CRSP/MPHP 431
…
To begin, we’ll gather a random sample of 1,000 subjects participating in NHANES, and then identify several variables of interest about those subjects1. Some of the motivation for this example came from a Figure in Baumer, Kaplan, and Horton (2017).

# library(NHANES) # already loaded NHANES package/library of functions, data

set.seed(431001) 
# use set.seed to ensure that we all get the same random sample 
# of 1,000 NHANES subjects in our nh_data collection

nh_dat1 <- sample_n(NHANES, size = 1000) %>%
    select(ID, Gender, Age, Height) 

nh_dat1

# A tibble: 1,000 x 4
      ID Gender   Age Height
   <int> <fct>  <int>  <dbl>
 1 69638 female     5   106.
 2 70782 male      64   176.
 3 52408 female    54   162.
 4 59031 female    15   155.
 5 64530 male      53   185.
 6 71040 male      63   169.
 7 55186 female    30   168.
 8 60211 male       5   103.
 9 55730 male      66   161.
10 68229 female    36   170.
# ... with 990 more rows
…
That’s better. How many observations do we have now? We could use dim to find out the number of rows and columns in this new data set.

dim(nh_dat2)

[1] 963   4

Or, we could simply list the data set and read off the result.

nh_dat2

# A tibble: 963 x 4
      ID Sex      Age Height
   <int> <fct>  <int>  <dbl>
 1 69638 female     5   106.
 2 70782 male      64   176.
 3 52408 female    54   162.
 4 59031 female    15   155.
 5 64530 male      53   185.
 6 71040 male      63   169.
 7 55186 female    30   168.
 8 60211 male       5   103.
 9 55730 male      66   161.
10 68229 female    36   170.
# ... with 953 more rows
…
Can you see how the code below accomplishes these tasks?

set.seed(431001) # again, this will ensure the same sample

nh_dat3 <- sample_n(NHANES, size = 1000) %>%
    filter(Age > 20 & Age < 80) %>%
    select(ID, Gender, Age, Height, 
           Pulse, BPSysAve, SleepTrouble, PhysActive,
           MaritalStatus, HealthGen) %>%
    rename(Sex = Gender, SBP = BPSysAve) %>%
    na.omit

nh_dat3

# A tibble: 603 x 10
      ID Sex     Age Height Pulse   SBP SleepTrouble PhysActive MaritalStatus
   <int> <fct> <int>  <dbl> <int> <int> <fct>        <fct>      <fct>        
 1 70782 male     64   176.    78   127 No           No         Married      
 2 52408 fema~    54   162.    80   135 No           No         LivePartner  
 3 64530 male     53   185.   100   131 No           No         Married      
 4 71040 male     63   169.    70   124 Yes          Yes        Married      
 5 55186 fema~    30   168.    76   107 No           No         Married      
 6 55730 male     66   161.    78   133 No           No         Married      
 7 68229 fema~    36   170.    90   105 No           Yes        Married      
 8 63762 male     23   180.    66   118 No           No         Married      
 9 66290 fema~    63   162.    88   116 No           No         Married      
10 66984 male     75   174.    84   141 No           No         Married      
# ... with 593 more rows, and 1 more variable: HealthGen <fct>
…
