Chapter 2 Looking at the Palmer Penguins | Data Science for Biological, Medical and Health Research: Notes for PQHS/CRSP/MPHP 431
…
It’s worth remembering that everything after the # on each line above is just a comment for the reader, and is ignored by R. We’ll see later that the loading of a single package (called tidyverse) gives us both the dplyr and ggplot2 packages, as well as several other useful things.

Next, let’s take the penguins data from the palmerpenguins package, and identify those observations which have complete data (so, no missing values) in four variables of interest. We’ll store that result in a new data frame (think of this as a data set) called new_penguins and then take a look at that result using the following code.

new_penguins <- penguins %>%
    filter(complete.cases(flipper_length_mm, body_mass_g, species, sex))

new_penguins

# A tibble: 333 x 8
   species island bill_length_mm bill_depth_mm flipper_length_~ body_mass_g
   <fct>   <fct>           <dbl>         <dbl>            <int>       <int>
 1 Adelie  Torge~           39.1          18.7              181        3750
 2 Adelie  Torge~           39.5          17.4              186        3800
 3 Adelie  Torge~           40.3          18                195        3250
 4 Adelie  Torge~           36.7          19.3              193        3450
 5 Adelie  Torge~           39.3          20.6              190        3650
 6 Adelie  Torge~           38.9          17.8              181        3625
 7 Adelie  Torge~           39.2          19.6              195        4675
 8 Adelie  Torge~           41.1          17.6              182        3200
 9 Adelie  Torge~           38.6          21.2              191        3800
10 Adelie  Torge~           34.6          21.1              198        4400
# ... with 323 more rows, and 2 more variables: sex <fct>, year <int>
…
