Chapter 7 NHANES National Youth Fitness Survey (nnyfs) | Data Science for Biological, Medical and Health Research: Notes for PQHS/CRSP/MPHP 431
…
Now, I’ll take a look at the nnyfs data, which I’ve made available in a comma-separated version (nnyfs.csv), if you prefer, as well as in an R data set (nnyfs.Rds) which loads a bit faster. After loading the file, let’s get a handle on its size and contents. In my R Project for these notes, the data are contained in a separate data subdirectory.

nnyfs <- readRDS("data/nnyfs.Rds") %>% as_tibble()

## size of the tibble
dim(nnyfs)

[1] 1518   45

There are 1518 rows (subjects) and 45 columns (variables), by which I mean that there are 1518 kids in the nnyfs data frame, and we have 45 pieces of information on each subject.
So, what do we have, exactly?

nnyfs # this is a tibble, has some nice features in a print-out like this

# A tibble: 1,518 x 45
    SEQN sex   age_child race_eth educ_child language sampling_wt income_pov
   <dbl> <chr>     <dbl> <chr>         <dbl> <chr>          <dbl>      <dbl>
 1 71917 Fema~        15 3_Black~          9 English       28299.       0.21
 2 71918 Fema~         8 3_Black~          2 English       15127.       5   
 3 71919 Fema~        14 2_White~          8 English       29977.       5   
 4 71920 Fema~        15 2_White~          8 English       80652.       0.87
 5 71921 Male          3 2_White~         NA English       55592.       4.34
 6 71922 Male         12 1_Hispa~          6 English       27365.       5   
 7 71923 Male         12 2_White~          5 English       86673.       5   
 8 71924 Fema~         8 4_Other~          2 English       39549.       2.74
 9 71925 Male          7 1_Hispa~          0 English       42333.       0.46
10 71926 Male          8 3_Black~          2 English       15307.       1.57
# ... with 1,508 more rows, and 37 more variables: age_adult <dbl>,
#   educ_adult <chr>, respondent <chr>, salt_used <chr>, energy <dbl>,
#   protein <dbl>, sugar <dbl>, fat <dbl>, diet_yesterday <chr>, water <dbl>,
#   plank_time <dbl>, height <dbl>, weight <dbl>, bmi <dbl>, bmi_cat <chr>,
#   arm_length <dbl>, waist <dbl>, arm_circ <dbl>, calf_circ <dbl>,
#   calf_skinfold <dbl>, triceps_skinfold <dbl>, subscapular_skinfold <dbl>,
#   active_days <dbl>, tv_hours <dbl>, computer_hours <dbl>,
#   physical_last_week <chr>, enjoy_recess <chr>, meals_out <dbl>,
#   insured <chr>, phys_health <chr>, access_to_care <chr>, care_source <chr>,
…
