Chapter 13 The Western Collaborative Group Study | Data Science for Biological, Medical and Health Research: Notes for PQHS/CRSP/MPHP 431
…
            Data Science for Biological, Medical and Health Research: Notes for PQHS/CRSP/MPHP 431

Chapter 13 The Western Collaborative Group Study

13.1 The Western Collaborative Group Study (wcgs) data set

Vittinghoff et al. (2012) explore data from the Western Collaborative Group Study (WCGS) in great detail8. We’ll touch lightly on some key issues in this Chapter.

wcgs <- read_csv("data/wcgs.csv")

wcgs

# A tibble: 3,154 x 22
      id   age agec  height weight lnwght wghtcat   bmi   sbp lnsbp   dbp  chol
   <dbl> <dbl> <chr>  <dbl>  <dbl>  <dbl> <chr>   <dbl> <dbl> <dbl> <dbl> <dbl>
 1  2343    50 46-50     67    200   5.30 170-200  31.3   132  4.88    90   249
 2  3656    51 51-55     73    192   5.26 170-200  25.3   120  4.79    74   194
 3  3526    59 56-60     70    200   5.30 170-200  28.7   158  5.06    94   258
 4 22057    51 51-55     69    150   5.01 140-170  22.1   126  4.84    80   173
 5 12927    44 41-45     71    160   5.08 140-170  22.3   126  4.84    80   214
 6 16029    47 46-50     64    158   5.06 140-170  27.1   116  4.75    76   206
 7  3894    40 35-40     70    162   5.09 140-170  23.2   122  4.80    78   190
 8 11389    41 41-45     70    160   5.08 140-170  23.0   130  4.87    84   212
 9 12681    50 46-50     71    195   5.27 170-200  27.2   112  4.72    70   130
10 10005    43 41-45     68    187   5.23 170-200  28.4   120  4.79    80   233
# ... with 3,144 more rows, and 10 more variables: behpat <chr>, dibpat <chr>,
#   smoke <chr>, ncigs <dbl>, arcus <dbl>, chd69 <chr>, typchd69 <dbl>,
#   time169 <dbl>, t1 <dbl>, uni <dbl>
…
